Bramen, Jennifer   10/29/2017  9:53 AM                 	        	                	                               	                                         	        	   	        	      	          	           
IVA-2 Standard Scale Analysis                          	        	                	                               	                                         	        	   	        	      	          	           
Name: Bramen, Jennifer                                 	        	                	                               	                                         	        	   	        	      	          	           
Test Date: 10/29/2017  9:53 AM                         	        	Age: 40         	DOB: 5/25/1977                 	                                         	        	   	Sex: F  	      	On Meds: N	           
Highest Education:                                     	        	                	                               	Examiner ID: Unknown                     	        	   	        	      	          	           
Comments: Vyvance 10/27 @ 9am                          	        	                	                               	                                         	        	   	        	      	          	           
FS Attention Quotient = 106                            	        	                	                               	FS Response Control Quotient = 94        	        	   	        	      	          	           
Auditory                                               	Visual  	                	                               	Auditory                                 	        	   	Visual  	      	          	           
AQ = 109                                               	AQ = 102	                	                               	RCQ = 109                                	        	   	RCQ = 79	      	          	           
Sustained Auditory Attention Quotient = 117            	        	                	                               	Sustained Visual Attention Quotient = 106	        	   	        	      	          	           
Auditory Response Validity Check:                      	        	Valid           	                               	                                         	        	   	        	      	          	           
Visual Response Validity Check:                        	        	Valid           	                               	                                         	        	   	        	      	          	           
Attention Factor:                                      	Negative	                	Impulsive Hyperactivity Factor:	                                         	        	   	Negative	      	          	           
Auditory                                               	        	ATTENTION       	                               	                                         	Visual  	   	        	      	          	           
Raw                                                    	Quotient	Primary Scales  	                               	                                         	Quotient	   	        	Raw   	          	           
100.0%                                                 	108     	Vigilance       	                               	                                         	105     	   	        	100.0%	          	           
78.0%                                                  	96      	Focus           	                               	                                         	88      	   	        	75.6% 	          	           
513 ms                                                 	117     	Speed           	                               	                                         	113     	   	        	364 ms	          	           
Auditory                                               	        	RESPONSE CONTROL	                               	                                         	Visual  	   	        	      	          	           
Raw                                                    	Quotient	Primary Scales  	                               	                                         	Quotient	   	        	Raw   	          	           
98.7%                                                  	105     	Prudence        	                               	                                         	95      	   	        	95.4% 	          	           
77.9%                                                  	94      	Consistency     	                               	                                         	84      	   	        	73.2% 	          	           
106.2%                                                 	116     	Stamina         	                               	                                         	86      	   	        	90.8% 	          	           
Fine Motor Hyperactivity                               	        	                	                               	                                         	        	   	        	      	          	           
                                                       	        	WNL             	Mild                           	                                         	Mod     	Sev	        	      	Ext       	           
Hyperactive Events: 1                                  	        	                	Fine Motor Hyperactivity: 109  	                                         	        	   	        	      	          	           
Symptomatic                                            	Raw     	Quotient        	WNL                            	                                         	Mild    	Mod	        	Sev   	          	Ext        
Comprehension (A)                                      	100.0%  	106             	                               	                                         	        	   	        	      	          	           
Comprehension (V)                                      	100.0%  	105             	                               	                                         	        	   	        	      	          	           
Persistence (A)                                        	112.7%  	109             	                               	                                         	        	   	        	      	          	           
Persistence (V)                                        	79.9%   	89              	                               	                                         	        	   	        	      	          	           
Sensory/Motor (A)                                      	243 ms  	117             	                               	                                         	        	   	        	      	          	           
Sensory/Motor (V)                                      	167 ms  	129             	                               	                                         	        	   	        	      	          	           
Test Version IVA-2 2017.2                              	        	                	                               	                                         	        	   	        	      	          	           
Device: Windows PC                                     	        	                	                               	                                         	        	   	        	      	          	           
Copyright ? 2017 BrainTrain, Inc. - All Rights Reserved	        	                	                               	                                         	        	   	        	      	          	Page 1 of 1
